DNCA EVOLUTIF C;Mixtes Europe Flexible;118.00 EUR;-0.65;2.48;86.26454900432863;92.10938251253842;-0.8183190000000007;2.5;-1.66420894137993;-0.15447652323936634;3.483120899600056;9999;10.81;11.74;0.22;-0.11;0.02
ALLIANZ GLOBAL INVESTORS FUND ALLIANZ EUROPE EQUITY GROWTH SELECT;Actions Europe;JPY;-0.0;-0.0;0.0;0.0;0.0;-0.0;0.0;0.0;0.0;27.16;21.13;17.26;0.56;0.23;0.31
UBS ETFS PLC MSCI ACWI SF UCITS ETF UBS ETFS PLC – MSCI ACWI SF UCITS ETF (HEDGED TO;No category;JPY;-0.0;-0.0;0.0;0.0;0.0;-0.0;0.0;0.0;0.0;23.64;18.88;9999;-9999;-9999;-9999
FIDELITY FUNDS SICAV JAPAN SMALLER COMPANIES FUND Y;Actions Japon;JPY;-0.0;-0.0;0.0;0.0;0.0;-0.0;0.0;0.0;0.0;25.53;22.62;21.7;0.48;0.18;0.18
JPMORGAN FUNDS GLOBAL HEALTHCARE FUND X 23 356.00;Actions Monde Santé 23 356.00;JPY;5.51;2.66;6.548708685149207;183.94393697462323;12.296409000000018;17.94;11.738227935469903;0.0;0.0;23.75;20.24;9999;-9999;-9999;-9999
FIDELITY FUNDS SICAV JAPAN SMALLER COMPANIES FUND A;Actions Japon;JPY;-0.0;-0.0;0.0;0.0;0.0;-0.0;0.0;0.0;0.0;25.53;22.62;21.71;0.44;0.14;0.14
ARAMUS (CH) JAPAN FUND B 155 562.00;Actions Japon;JPY;1.13;2.6;192.29773394926778;213.7485303932936;1.263968999999987;15.07;6.168357119911039;1.48333663922815;0.0;22.42;21.84;23.82;0.69;0.3;0.08
RUSSELL INVESTMENT COMPANY II PLC RUSSELL INVESTMENT WORLD EQUITY FUND TYA (C) 2 088.4225;Actions Monde Grandes Capitalisations 2 088.4225;JPY;-9.65;2.6;93.8297738641144;181.15442522913193;-18.386844000000004;0.01;4.016516114629476;0.0;0.0;25.92;20.88;9999;-9999;-9999;-9999
ARAMUS (CH) JAPAN FUND A 133 043.00;Actions Japon;JPY;0.78;2.59;190.06026275637967;211.49152502000626;0.5206759999999866;14.21;5.486779862295976;0.7700488201618505;0.0;22.42;21.86;23.83;0.65;0.27;0.05
PICTET PICTET - DIGITAL I;No category;JPY;-0.0;-0.0;0.0;0.0;0.0;-0.0;0.0;0.0;0.0;27.33;20.12;9999;-9999;-9999;-9999
CS INVESTMENT FUNDS 2 CREDIT SUISSE (LUX) GLOBAL BALANCED CONVERTIBLE BOND FUND EBH;obligations;JPY;-0.0;-0.0;0.0;0.0;0.0;-0.0;0.0;0.0;0.0;12.0;9.74;9.33;0.72;0.36;0.34
THREADNEEDLE INVESTMENT FUNDS ICVC THREADNEEDLE JAPAN FUND INSTITUTIONAL ACCUMULATION;Actions Japon;JPY;110.554;-0.0;0.0;0.0;0.0;-0.0;0.0;0.0;0.0;21.46;19.96;20.22;0.76;0.34;0.18
THREADNEEDLE INVESTMENT FUNDS ICVC THREADNEEDLE JAPAN FUND RETAIL ACCUMULATION;Actions Japon;JPY;96.4246;-0.0;0.0;0.0;0.0;-0.0;0.0;0.0;0.0;21.46;19.95;20.22;0.73;0.31;0.15
FIDELITY FUNDS SICAV JAPAN FUND Y;Actions Japon;JPY;-0.0;-0.0;0.0;0.0;0.0;-0.0;0.0;0.0;0.0;25.18;20.64;20.67;0.47;0.27;0.1
UBAM UBAM - POSITIVE IMPACT EQUITY IC 9 331.00;No category;JPY;-0.0;10.49;0;0.0;0.0;-0.0;0.0;0.0;0.0;9999;9999;9999;-9999;-9999;-9999
FIDELITY FUNDS SICAV JAPAN FUND A;Actions Japon;JPY;-0.0;-0.0;0.0;0.0;0.0;-0.0;0.0;0.0;0.0;25.17;20.65;20.64;0.43;0.23;0.06
INVESCO FUNDS INVESCO NIPPON SMALL/MID CAP EQUITY FUND Z 1 835.00;Actions Japon Petites et Moyennes Capitalisations 1 835.00;JPY;-7.65;1.89;87.96947590082831;322.38838692642815;-8.185275999999986;4.02;3.068230156091256;7.13618473513018;0.0;26.29;25.39;24.96;0.17;0.13;0.3
INVESCO FUNDS INVESCO NIPPON SMALL/MID CAP EQUITY FUND A 1 453.00;Actions Japon Petites et Moyennes Capitalisations 1 453.00;JPY;-7.98;1.89;85.62886456674035;319.91888774600625;-8.854791000000006;3.2;2.22990560465004;6.073948358643988;9.505620716426222;26.29;25.41;24.18;0.13;0.1;0.27
INVESCO FUNDS INVESCO NIPPON SMALL/MID CAP EQUITY FUND C 1 633.00;Actions Japon Petites et Moyennes Capitalisations 1 633.00;JPY;-7.69;1.87;86.90222836065375;321.0934853164064;-8.261916000000003;3.81;2.8260488021695895;6.931989517652948;0.0;26.37;25.41;24.96;0.16;0.12;0.29
BL BL-EQUITIES JAPAN AM 23 899.00;Actions Japon 23 899.00;JPY;-4.27;1.61;97.82917882153774;149.65548424010012;-8.510774999999992;6.34;0.0;0.0;0.0;18.85;9999;9999;-9999;-9999;-9999
BL BL-EQUITIES JAPAN BI 15 796.00;Actions Japon 15 796.00;JPY;-3.96;1.61;98.27819511337479;150.37125628400082;-7.878395999999999;6.85;5.195403327708803;6.092898878400876;0.0;18.84;18.4;18.82;0.38;0.3;0.34
BL BL-EQUITIES JAPAN BM 20 959.00;Actions Japon 20 959.00;JPY;-4.09;1.6;97.82917882153774;149.65548424010012;-8.146943999999989;6.55;0.0;0.0;0.0;18.84;9999;9999;-9999;-9999;-9999
BL BL-EQUITIES JAPAN A 23 349.00;Actions Japon 23 349.00;JPY;-4.27;1.6;96.93394129400343;148.70351016916499;-8.510774999999992;6.13;4.1856889704917855;4.778889834749611;0.0;18.84;18.4;18.77;0.34;0.25;0.27
BL BL-EQUITIES JAPAN B 20 667.00;Actions Japon 20 667.00;JPY;-4.27;1.6;96.93394129400343;148.62430207706004;-8.510774999999992;6.12;4.476609311121438;5.414943657193416;0.0;18.84;18.39;18.82;0.34;0.26;0.31
BL BL-EQUITIES JAPAN BR 15 043.00;Actions Japon 15 043.00;JPY;-4.37;1.59;96.71071293296734;148.07037506249992;-8.740190999999998;5.86;4.213319547009209;5.085724340067532;0.0;18.84;18.4;18.82;0.33;0.25;0.29
FIDELITY FUNDS SICAV JAPAN ADVANTAGE FUND A;Actions Japon;JPY;-0.0;-0.0;0.0;0.0;0.0;-0.0;0.0;0.0;0.0;29.12;21.14;21.85;0.05;0.1;0.07
JPMORGAN FUNDS GLOBAL CORPORATE BOND FUND I;obligations;JPY;-0.0;-0.0;0.0;0.0;0.0;-0.0;0.0;0.0;0.0;9.64;7.83;9999;-9999;-9999;-9999
BL BL-EQUITIES JAPAN AR 14 721.00;Actions Japon 14 721.00;JPY;-4.57;1.57;94.93321855595698;146.5715242797351;-9.121910999999994;5.39;3.781840519990931;4.605747420861728;0.0;18.84;18.4;18.77;0.31;0.23;0.27
FIDELITY FUNDS SICAV JAPAN ADVANTAGE FUND Y;Actions Japon;JPY;-0.0;-0.0;0.0;0.0;0.0;-0.0;0.0;0.0;0.0;29.11;21.12;21.86;0.08;0.14;0.11
GOLDMAN SACHS FUNDS GOLDMAN SACHS JAPAN EQUITY PORTFOLIO I 2 025.23;No category;JPY;-1.78;1.51;147.1014321621948;164.5144724850209;-5.229774999999992;9.91;4.696021805729478;2.3161911080531894;0.0;22.62;20.73;9999;-9999;-9999;-9999
GOLDMAN SACHS FUNDS GOLDMAN SACHS JAPAN EQUITY PORTFOLIO I CAPITALISATION 14 379.78;No category;JPY;-1.78;1.5;147.1014321621948;164.5144724850209;-5.229774999999992;10.73;5.399836050955575;3.062578699461027;0.0;22.58;20.69;9999;-9999;-9999;-9999
GOLDMAN SACHS FUNDS GOLDMAN SACHS JAPAN EQUITY PORTFOLIO BASE (ACC) 14 154.91;No category;JPY;-2.2;1.49;144.63785182042827;162.11666988830973;-6.084519000000011;9.73;4.439950848704699;2.046504544135086;0.0;22.57;19.39;20.16;0.45;0.25;0.12
GOLDMAN SACHS FUNDS GOLDMAN SACHS JAPAN EQUITY PORTFOLIO BASE;Actions Monde Or & Métaux précieux;JPY;-0.0;-0.0;0.0;0.0;0.0;-0.0;0.0;0.0;0.0;22.57;20.14;20.16;0.45;0.24;0.12
GOLDMAN SACHS FUNDS GOLDMAN SACHS JAPAN EQUITY PORTFOLIO P SNAP 17 212.24;No category;JPY;-2.07;1.49;145.4565322310354;162.77649755422985;-5.8323839999999905;9.83;4.653430288700666;2.2741826254126796;0.0;22.58;20.13;20.17;0.45;0.25;0.13
GOLDMAN SACHS FUNDS GOLDMAN SACHS JAPAN EQUITY PORTFOLIO P SNAP 17 521.00;No category;JPY;-2.07;1.49;145.4565322310354;162.77649755422985;-5.8323839999999905;10.02;4.717304575377446;2.3890854316346077;0.0;22.57;20.13;20.16;0.46;0.25;0.14
JPMORGAN FUNDS JAPAN EQUITY FUND X;Actions Japon;JPY;-0.0;-0.0;0.0;0.0;0.0;-0.0;0.0;0.0;0.0;18.66;20.87;9999;-9999;-9999;-9999
JPMORGAN FUNDS JAPAN EQUITY FUND C;Actions Japon;JPY;-0.0;-0.0;0.0;0.0;0.0;-0.0;0.0;0.0;0.0;18.65;20.86;9999;-9999;-9999;-9999
JPMORGAN FUNDS JAPAN EQUITY FUND I;Actions Japon;JPY;-0.0;-0.0;0.0;0.0;0.0;-0.0;0.0;0.0;0.0;18.65;20.86;9999;-9999;-9999;-9999
JPMORGAN FUNDS JAPAN EQUITY FUND A;Actions Japon;JPY;-0.0;-0.0;0.0;0.0;0.0;-0.0;0.0;0.0;0.0;18.67;20.81;21.61;0.96;0.5;0.31
JPMORGAN FUNDS JAPAN EQUITY FUND D;Actions Japon;JPY;-0.0;-0.0;0.0;0.0;0.0;-0.0;0.0;0.0;0.0;18.64;20.81;9999;-9999;-9999;-9999
UBS (LUX) EQUITY FUND JAPAN (;Actions Japon;JPY;-0.0;-0.0;0.0;0.0;0.0;-0.0;0.0;0.0;0.0;22.92;20.4;20.78;0.38;0.17;0.06
JANUS HENDERSON HORIZON FUND JAPANESE SMALLER COMPANIES FUND Z2;Actions Japon;JPY;-0.0;-0.0;0.0;0.0;0.0;-0.0;0.0;0.0;0.0;26.86;23.32;20.96;0.42;0.08;0.29
CAPITAL INTERNATIONAL FUND CAPITAL GROUP EMERGING MARKETS TOTAL OPPORTUNITIES (LUX) CDMH-;Actions Emergentes Monde;JPY;781.0;-0.0;0.0;0.0;0.0;-0.0;0.0;0.0;0.0;9999;9999;9999;-9999;-9999;-9999
JANUS HENDERSON HORIZON FUND JAPANESE SMALLER COMPANIES FUND A2;Actions Japon;JPY;-0.0;-0.0;0.0;0.0;0.0;-0.0;0.0;0.0;0.0;26.76;23.27;20.86;0.35;0.0;0.2
MULTIPARTNER SICAV JB MULTIPARTNER - KONWAVE JAPAN OPPORTUNITIES FUND C 9 518.00;Actions Japon;JPY;-9.91;1.28;168.23661131816516;170.45439131160575;-19.323676;-4.39;-6.975225315497713;-5.525882714726926;0.0;24.35;20.17;20.32;-0.16;-0.32;-0.24
MULTIPARTNER SICAV JB MULTIPARTNER - KONWAVE JAPAN OPPORTUNITIES FUND B 9 208.00;Actions Japon;JPY;-10.14;1.26;166.4631525560241;169.02314042523997;-19.772151000000015;-4.92;-7.474805986106836;-6.038559303937241;0.0;24.36;20.17;20.32;-0.18;-0.34;-0.27
GAM MULTISTOCK JAPAN EQUITY C;Actions Japon;JPY;-0.0;-0.0;0.0;0.0;0.0;-0.0;0.0;0.0;0.0;22.04;19.51;20.7;0.34;0.15;0.09
GAM MULTISTOCK JAPAN EQUITY B;Actions Japon;JPY;-0.0;-0.0;0.0;0.0;0.0;-0.0;0.0;0.0;0.0;22.04;19.51;20.69;0.31;0.11;0.05
INVESCO FUNDS INVESCO BALANCED-RISK ALLOCATION FUND C 1 194.00;Mixtes Mondial Flexible 1 194.00;JPY;-5.91;1.19;61.96036771733486;94.53582471210002;-10.773083999999999;-2.69;0.33885050645270365;1.8948196226798997;0.0;15.1;10.23;9.02;-0.14;0.07;0.26
GAM MULTISTOCK JAPAN EQUITY A;Actions Japon;JPY;-0.0;-0.0;0.0;0.0;0.0;-0.0;0.0;0.0;0.0;22.04;19.57;20.71;0.26;0.06;0.0
GAM MULTISTOCK JAPAN EQUITY E;Actions Japon;JPY;-0.0;-0.0;0.0;0.0;0.0;-0.0;0.0;0.0;0.0;22.03;19.51;20.69;0.27;0.07;0.01
GAM STAR FUND PLC GAM STAR JAPAN LEADERS;Actions Japon;JPY;-0.0;-0.0;0.0;0.0;0.0;-0.0;0.0;0.0;0.0;21.38;19.57;20.21;0.72;0.34;0.32
BNP PARIBAS FUNDS JAPAN EQUITY I CAPITALISATION 3 936.00;Actions Japon 3 936.00;JPY;-7.76;1.08;175.74310321771932;187.72496783179778;-16.222590999999998;3.28;0.21287983352309414;-0.8710427079236194;6.018643672773472;21.97;20.09;21.09;0.17;0.03;-0.01
BNP PARIBAS FUNDS JAPAN EQUITY PRIVILEGE CAPITALISATION 106 254.00;Actions Japon 106 254.00;JPY;-7.81;1.06;175.13557252683526;187.1951283936898;-16.31409599999999;3.15;0.07660796387884972;-1.053984737061231;5.7659739569840385;21.97;20.08;21.09;0.16;0.02;-0.02
BNP PARIBAS FUNDS JAPAN EQUITY X 6 552.00;Actions Japon 6 552.00;JPY;-7.46;1.06;177.26731386531526;189.49639537316094;-15.635775000000008;4.02;0.9378436632632603;-0.14844003520768645;0.0;21.97;20.06;21.09;0.2;0.06;0.01
BNP PARIBAS FUNDS JAPAN EQUITY PRIVILEGE DISTRIBUTION 13 246.00;Actions Japon 13 246.00;JPY;-10.39;1.05;175.43918432855457;156.39604425648662;-20.932336000000006;0.26;-2.208411806851862;-3.179906825680112;0.0;22.23;20.19;21.16;0.03;-0.08;-0.12
BNP PARIBAS FUNDS JAPAN EQUITY CLASSIC CAPITALISATION 4 770.00;Actions Japon 4 770.00;JPY;-8.2;1.04;173.0188646956662;184.73221348009994;-17.080764000000002;2.23;-0.7997116727076148;-1.8663792610215557;4.950941340530668;21.96;20.08;21.09;0.12;-0.01;-0.06
BNP PARIBAS FUNDS JAPAN EQUITY N CAPITALISATION 4 084.00;Actions Japon 4 084.00;JPY;-8.51;1.04;170.61805471594639;182.54659922000624;-17.680671000000004;1.49;-1.4818503387253434;-2.5663896422836396;4.183013098971289;21.97;20.07;21.09;0.08;-0.05;-0.1
BNP PARIBAS FUNDS JAPAN EQUITY CLASSIC DISTRIBUTION 3 288.00;Actions Japon 3 288.00;JPY;-10.8;1.04;173.0188646956662;153.81232263933455;-21.659799000000003;-0.67;-3.077044208147972;-3.982879943826867;2.8268937843139996;22.23;20.19;21.16;0.0;-0.12;-0.16
ABERDEEN GLOBAL JAPANESE EQUITY FUND I ACC;Actions Japon;JPY;-0.0;-0.0;0.0;0.0;0.0;-0.0;0.0;0.0;0.0;21.71;19.96;18.55;0.67;0.1;0.12
SCHRODER INTERNATIONAL SELECTION FUND JAPANESE OPPORTUNITIES I (C) 2 111.7559;Actions Japon 2 111.7559;JPY;-11.19;1.01;102.3615858682574;144.68795954652393;-21.376310999999994;2.72;-0.5328340789545583;0.9690364908960136;10.382670923928616;23.65;20.49;21.45;0.13;0.0;0.06
ABERDEEN STANDARD SICAV I JAPANESE EQUITY FUND X ACC;Actions Japon;JPY;22.2842;-0.0;0.0;0.0;0.0;-0.0;0.0;0.0;0.0;21.71;19.96;18.55;0.67;0.1;0.11
SCHRODER INTERNATIONAL SELECTION FUND JAPANESE OPPORTUNITIES I (D) 1 675.3986;Actions Japon 1 675.3986;JPY;-11.2;1.01;102.3615858682574;144.68795954652393;-21.39404399999999;0.45;-2.540670041394444;-0.8938366927376817;8.36059093306254;23.74;20.78;21.63;0.03;-0.1;-0.01
SCHRODER INTERNATIONAL SELECTION FUND SCHRODER ISF - JAPANESE SMALLER COMPANIES I (C) 207.4074;Actions Japon 207.4074;JPY;-4.72;1.0;69.39350337459607;193.15338136700623;-9.064704;6.65;5.540672981274297;7.6771902546245885;12.563510425955847;22.08;22.49;21.53;0.32;0.26;0.37
ABERDEEN STANDARD SICAV I JAPANESE EQUITY FUND A ACC;Actions Japon;JPY;499.9956;-0.0;0.0;0.0;0.0;-0.0;0.0;0.0;0.0;21.71;19.96;18.55;0.63;0.06;0.07
FRANKLIN TEMPLETON INVESTMENT FUNDS FRANKLIN JAPAN FUND A;Actions Japon;JPY;-0.0;-0.0;0.0;0.0;0.0;-0.0;0.0;0.0;0.0;23.98;19.57;19.39;0.06;-0.09;-0.12
SCHRODER INTERNATIONAL SELECTION FUND JAPANESE OPPORTUNITIES C (D) 1 543.7825;Actions Japon 1 543.7825;JPY;-11.7;0.99;99.85711925749187;141.7277444887353;-22.348656;-0.79;-3.752375388920015;-2.1287202029574903;7.472159028427705;23.73;20.78;21.62;-0.01;-0.15;-0.07
SCHRODER INTERNATIONAL SELECTION FUND JAPANESE OPPORTUNITIES C (C) 1 828.2034;Actions Japon 1 828.2034;JPY;-11.7;0.99;99.85711925749187;141.7277444887353;-22.348656;1.46;-1.7573692202558666;-0.2775362578963714;9.055750521511218;23.65;20.49;21.44;0.08;-0.06;0.0
ABERDEEN GLOBAL JAPANESE EQUITY FUND S ACC;Actions Japon;JPY;-0.0;-0.0;0.0;0.0;0.0;-0.0;0.0;0.0;0.0;21.71;19.96;18.55;0.61;0.04;0.05
BLACKROCK GLOBAL FUNDS JAPAN FLEXIBLE EQUITY FUND X2;Actions Japon;JPY;-0.0;-0.0;0.0;0.0;0.0;-0.0;0.0;0.0;0.0;21.45;19.13;20.25;0.53;0.27;0.2
SCHRODER INTERNATIONAL SELECTION FUND JAPANESE OPPORTUNITIES A (D) 1 461.6271;Actions Japon 1 461.6271;JPY;-11.94;0.97;98.72814544025319;140.33495060814806;-22.78863099999999;-1.35;-4.284261019848534;-2.6753735686138813;6.939188716537847;23.73;20.78;21.62;-0.03;-0.18;-0.1
SCHRODER INTERNATIONAL SELECTION FUND SCHRODER ISF - JAPANESE SMALLER COMPANIES C (C) 171.5067;Actions Japon 171.5067;JPY;-5.27;0.97;67.26593796265557;189.58518092600625;-10.186470999999997;5.34;4.244003013493969;6.348978956846385;11.174593122188048;22.07;22.48;21.53;0.26;0.2;0.31
SCHRODER INTERNATIONAL SELECTION FUND JAPANESE OPPORTUNITIES A (C) 1 681.7384;Actions Japon 1 681.7384;JPY;-11.93;0.97;98.72814544025319;140.33495060814806;-22.771056;0.9;-2.2956292090797747;-0.8358568245452336;8.399365618531718;23.65;20.49;21.44;0.05;-0.08;-0.01
SCHRODER INTERNATIONAL SELECTION FUND JAPANESE OPPORTUNITIES A1 (C) 1 561.0394;Actions Japon 1 561.0394;JPY;-12.14;0.97;97.60502038770676;139.1788940957722;-23.157243999999988;0.4;-2.783422247575984;-1.3267408384866952;7.837194562455063;23.65;20.49;21.44;0.03;-0.11;-0.04
SCHRODER INTERNATIONAL SELECTION FUND SCHRODER ISF - JAPANESE SMALLER COMPANIES A (C) 146.6682;Actions Japon 146.6682;JPY;-5.52;0.96;66.49837094557216;187.99016230047437;-10.678598999999988;4.76;3.6672054414961464;5.754495368024504;10.50414863930056;22.07;22.48;21.53;0.23;0.18;0.28
SCHRODER INTERNATIONAL SELECTION FUND SCHRODER ISF - JAPANESE SMALLER COMPANIES A1 (C) 135.3008;Actions Japon 135.3008;JPY;-5.74;0.95;65.54345291422565;186.48981452009994;-11.112816000000002;4.24;3.15288196193082;5.23128431906168;9.98411800099641;22.07;22.48;21.53;0.21;0.16;0.26
SCHRODER INTERNATIONAL SELECTION FUND SCHRODER ISF - JAPANESE SMALLER COMPANIES B (C) 124.9339;Actions Japon 124.9339;JPY;-5.78;0.95;65.35307280809475;186.22565703838396;-11.20707099999999;4.13;3.049399749139625;5.121780524345598;9.843173780307035;22.07;22.48;21.53;0.2;0.15;0.25
SCHRODER INTERNATIONAL SELECTION FUND JAPANESE EQUITY I (C) 1 584.299;Actions Japon 1 584.299;JPY;-8.36;0.95;97.38109480174712;147.20178905763444;-17.20819899999999;3.49;2.430450538796647;2.140392199975949;8.959120256273767;22.52;20.28;20.85;0.17;0.14;0.12
AXA WORLD FUNDS II AXA WORLD FUNDS II - ASIA SELECT INCOME A CAPITALISATION;No category;JPY;385.3;-0.0;0.0;0.0;0.0;-0.0;0.0;0.0;0.0;26.47;9999;9999;-9999;-9999;-9999
AXA WORLD FUNDS II AXA WORLD FUNDS II - ASIA SELECT INCOME I DISTRIBUTION;No category;JPY;387.7;-0.0;0.0;0.0;0.0;-0.0;0.0;0.0;0.0;26.44;19.21;9999;-9999;-9999;-9999
AXA WORLD FUNDS II AXA WORLD FUNDS II - ASIA SELECT INCOME A DISTRIBUTION;No category;JPY;385.1;-0.0;0.0;0.0;0.0;-0.0;0.0;0.0;0.0;26.42;19.22;9999;-9999;-9999;-9999
BLACKROCK GLOBAL FUNDS JAPAN SMALL & MIDCAP OPPORTUNITIES FUND D2;Actions Japon;JPY;-0.0;-0.0;0.0;0.0;0.0;-0.0;0.0;0.0;0.0;23.97;21.71;21.65;0.49;0.15;0.18
SCHRODER INTERNATIONAL SELECTION FUND JAPANESE EQUITY C (D) 1 123.6958;Actions Japon 1 123.6958;JPY;-8.78;0.93;95.37620645939444;144.76622525604088;-18.006975000000004;0.61;-0.3009045271794575;-0.5520618887257744;6.344448961953408;22.6;20.53;20.98;0.04;0.0;0.0
SCHRODER INTERNATIONAL SELECTION FUND JAPANESE EQUITY C (C) 1 325.2819;Actions Japon 1 325.2819;JPY;-8.77;0.93;95.37620645939444;144.76622525604088;-18.006975000000004;2.48;1.4294688238301934;1.1358998393793174;7.885271292805296;22.51;20.28;20.85;0.13;0.09;0.07
BLACKROCK GLOBAL FUNDS JAPAN SMALL & MIDCAP OPPORTUNITIES FUND A2;Actions Japon;JPY;-0.0;-0.0;0.0;0.0;0.0;-0.0;0.0;0.0;0.0;23.99;21.71;21.64;0.45;0.11;0.15
SCHRODER INTERNATIONAL SELECTION FUND JAPANESE EQUITY A (C) 1 116.0633;Actions Japon 1 116.0633;JPY;-9.02;0.92;94.2704628168449;143.43825901056553;-18.459099999999996;1.91;0.8690915834487223;0.5675217204996974;7.233481867338254;22.51;20.27;20.84;0.1;0.06;0.04
BLACKROCK GLOBAL FUNDS JAPAN SMALL & MIDCAP OPPORTUNITIES FUND E2;Actions Japon;JPY;-0.0;-0.0;0.0;0.0;0.0;-0.0;0.0;0.0;0.0;23.99;21.71;21.64;0.43;0.09;0.13
SCHRODER INTERNATIONAL SELECTION FUND JAPANESE EQUITY A (D) 980.0594;Actions Japon 980.0594;JPY;-9.02;0.92;94.2704628168449;143.43825901056553;-18.459099999999996;0.05;-0.8505471270987774;-1.112478326377675;5.8753533898820764;22.6;20.53;20.97;0.02;-0.01;-0.03
BLACKROCK GLOBAL FUNDS JAPAN FLEXIBLE EQUITY FUND A2;Actions Japon;JPY;-0.0;-0.0;0.0;0.0;0.0;-0.0;0.0;0.0;0.0;21.41;19.13;20.22;0.44;0.17;0.11
SCHRODER INTERNATIONAL SELECTION FUND JAPANESE EQUITY B (C) 952.3939;Actions Japon 952.3939;JPY;-9.27;0.91;93.17045840453848;141.96046403014643;-18.963996000000005;1.3;0.26264291640296644;-0.03402314361049541;6.593034149790666;22.51;20.27;20.84;0.07;0.03;0.02
SCHRODER INTERNATIONAL SELECTION FUND JAPANESE EQUITY A1 (C) 970.4411;Actions Japon 970.4411;JPY;-9.34;0.91;92.95114384344798;141.5726914183593;-19.071984000000008;1.14;0.11320513095760543;-0.18266612034251173;6.458297246704681;22.51;20.27;20.84;0.07;0.02;0.01
ABERDEEN GLOBAL JAPANESE SMALLER COMPANIES Z ACC;Actions Japon;JPY;-0.0;-0.0;0.0;0.0;0.0;-0.0;0.0;0.0;0.0;20.7;21.11;9999;-9999;-9999;-9999
ABERDEEN GLOBAL JAPANESE SMALLER COMPANIES I ACC;Actions Japon;JPY;-0.0;-0.0;0.0;0.0;0.0;-0.0;0.0;0.0;0.0;20.7;21.1;19.85;0.33;0.24;0.2
ABERDEEN GLOBAL JAPANESE SMALLER COMPANIES X ACC;Actions Japon;JPY;28.6748;-0.0;0.0;0.0;0.0;-0.0;0.0;0.0;0.0;20.7;21.1;19.85;0.33;0.24;0.19
BLACKROCK GLOBAL FUNDS JAPAN SMALL & MIDCAP OPPORTUNITIES FUND C2;Actions Japon;JPY;-0.0;-0.0;0.0;0.0;0.0;-0.0;0.0;0.0;0.0;23.98;21.71;21.64;0.39;0.06;0.09
ABERDEEN GLOBAL JAPANESE SMALLER COMPANIES S ACC;Actions Japon;JPY;-0.0;-0.0;0.0;0.0;0.0;-0.0;0.0;0.0;0.0;20.69;21.1;19.85;0.27;0.18;0.13
ABERDEEN GLOBAL JAPANESE SMALLER COMPANIES A ACC;Actions Japon;JPY;-0.0;-0.0;0.0;0.0;0.0;-0.0;0.0;0.0;0.0;20.69;21.1;19.85;0.29;0.2;0.16
BLACKROCK GLOBAL FUNDS JAPAN FLEXIBLE EQUITY FUND C2;Actions Japon;JPY;-0.0;-0.0;0.0;0.0;0.0;-0.0;0.0;0.0;0.0;21.4;19.1;20.24;0.38;0.11;0.05
ABERDEEN GLOBAL JAPANESE SMALLER COMPANIES W ACC;Actions Japon;JPY;12.4733;-0.0;0.0;0.0;0.0;-0.0;0.0;0.0;0.0;20.69;21.1;9999;-9999;-9999;-9999
BLACKROCK GLOBAL FUNDS JAPAN FLEXIBLE EQUITY FUND E2;Actions Japon;JPY;-0.0;-0.0;0.0;0.0;0.0;-0.0;0.0;0.0;0.0;21.4;19.13;20.24;0.42;0.15;0.09
CS INVESTMENT FUNDS 2 CREDIT SUISSE (LUX) JAPAN VALUE EQUITY FUND I 2 299.00;No category;JPY;-13.28;0.83;71.54584929441823;82.50423690268649;-25.747310999999996;-5.31;-1.0237787953472077;0.8571783998366111;0.0;21.96;19.82;21.15;-0.22;-0.02;0.06
CS INVESTMENT FUNDS 2 CREDIT SUISSE (LUX) JAPAN VALUE EQUITY FUND UB;Actions Japon 1 995.00;JPY;-0.0;-0.0;0.0;0.0;0.0;-0.0;0.0;0.0;0.0;21.97;19.85;21.13;-0.22;-0.03;0.05
CS INVESTMENT FUNDS 2 CREDIT SUISSE (LUX) JAPAN VALUE EQUITY FUND B 1 995.00;No category;JPY;-13.6;0.81;69.58814327678655;81.00150823313597;-26.314943999999997;-6.03;-1.7746405245004704;-0.010002000600206618;0.0;21.92;19.81;21.14;-0.25;-0.06;0.02
CS INVESTMENT FUNDS 2 CREDIT SUISSE (LUX) JAPAN VALUE EQUITY FUND F 12 033.00;No category;JPY;-13.27;0.8;71.3491506209262;82.31588595359996;-25.730076;-5.29;-0.9829638541418717;0.8996657373089745;0.0;21.94;19.82;21.11;-0.22;-0.02;0.06
BLUEBAY FUNDS BLUEBAY GLOBAL INVESTMENT GRADE CORPORATE BOND FUND S;obligations;JPY;-0.0;-0.0;0.0;0.0;0.0;-0.0;0.0;0.0;0.0;12.54;9999;9999;-9999;-9999;-9999
AMUNDI FUNDS AMUNDI FUNDS EQUITY JAPAN TARGET M;Actions Japon;JPY;-0.0;-0.0;0.0;0.0;0.0;-0.0;0.0;0.0;0.0;23.93;22.23;23.19;-0.05;-0.02;0.03
AMUNDI FUNDS AMUNDI FUNDS EQUITY JAPAN TARGET R;Actions Japon;JPY;-0.0;-0.0;0.0;0.0;0.0;-0.0;0.0;0.0;0.0;23.8;22.21;23.14;-0.07;-0.02;0.03
AMUNDI FUNDS AMUNDI FUNDS EQUITY JAPAN TARGET I;Actions Japon;JPY;-0.0;-0.0;0.0;0.0;0.0;-0.0;0.0;0.0;0.0;23.76;22.18;23.1;-0.12;-0.05;0.0
FRANKLIN TEMPLETON INVESTMENT FUNDS TEMPLETON GLOBAL TOTAL RETURN FUND I;No category;JPY;910.63;-0.0;0.0;0.0;0.0;-0.0;0.0;0.0;0.0;9.8;10.36;15.03;-1.55;-1.0;-0.61
ISHARES NIKKEI 225 UCITS ETF 21 416.8714;Actions Japon 21 416.8714;JPY;-4.37;0.78;212.81725494115952;249.09768916916724;-9.920918999999994;6.81;5.231537432165956;3.4531383806628124;0.0;30.21;21.27;22.14;0.24;0.26;0.17
AMUNDI FUNDS AMUNDI FUNDS EQUITY JAPAN TARGET G;Actions Japon;JPY;-0.0;-0.0;0.0;0.0;0.0;-0.0;0.0;0.0;0.0;23.81;22.27;23.19;-0.11;-0.09;-0.02
AMUNDI FUNDS AMUNDI FUNDS EQUITY JAPAN TARGET A;Actions Japon;JPY;-0.0;-0.0;0.0;0.0;0.0;-0.0;0.0;0.0;0.0;23.81;22.25;23.16;-0.11;-0.07;-0.02
AMUNDI FUNDS AMUNDI FUNDS EQUITY JAPAN TARGET F2;Actions Japon;JPY;-0.0;-0.0;0.0;0.0;0.0;-0.0;0.0;0.0;0.0;23.88;22.3;23.18;-0.14;-0.12;-0.07
CAPITAL INTERNATIONAL FUND CAPITAL GROUP EMERGING MARKETS TOTAL OPPORTUNITIES (LUX) CDM;Actions Emergentes Monde;JPY;938.0;-0.0;0.0;0.0;0.0;-0.0;0.0;0.0;0.0;9999;9999;9999;-9999;-9999;-9999
AXA IM FIXED INCOME INVESTMENT STRATEGIES US CORPORATE INTERMEDIATE BONDS A DISTRIBUTION;Actions USA;JPY;-0.0;-0.0;0.0;0.0;0.0;-0.0;0.0;0.0;0.0;8.55;9999;9999;-9999;-9999;-9999
RUSSELL INVESTMENT COMPANY PLC. RUSSELL INVESTMENTS EMERGING MARKETS EQUITY FUND TYC (C) 11 833.8006;Actions Emergentes Monde 11 833.8006;JPY;-14.37;0.69;164.40770518278512;152.9286947085703;-27.03423600000001;-4.45;-1.071438811551173;0.0;0.0;27.71;21.64;9999;-9999;-9999;-9999
BNP PARIBAS FUNDS JAPAN MULTI-FACTOR EQUITY X 8 511.00;Actions Japon 8 511.00;JPY;-10.24;0.67;128.7808685574234;141.1079797386344;-22.137024000000004;-0.0;0.0;0.0;0.0;9999;9999;9999;-9999;-9999;-9999
OYSTER OYSTER JAPAN OPPORTUNITIES R;Actions Japon;JPY;-0.0;-0.0;0.0;0.0;0.0;-0.0;0.0;0.0;0.0;23.74;19.11;20.7;-0.07;0.0;0.08
PINEBRIDGE - JAPAN SMALL & MID CAP EQUITY FUND Y3 (C) 2 305.7623;Actions Japon;JPY;-0.0;6.18;0;0.0;0.0;-0.0;0.0;0.0;0.0;9999;9999;9999;-9999;-9999;-9999
OYSTER OYSTER JAPAN OPPORTUNITIES C;Actions Japon;JPY;-0.0;-0.0;0.0;0.0;0.0;-0.0;0.0;0.0;0.0;23.74;19.11;20.7;-0.09;-0.03;0.05
BNP PARIBAS FUNDS JAPAN MULTI-FACTOR EQUITY CLASSIC CAPITALISATION 1 254.00;Actions Japon 1 254.00;JPY;-10.68;0.64;125.21915889608249;138.56403864473847;-22.99937500000001;-0.0;0.0;0.0;0.0;9999;9999;9999;-9999;-9999;-9999
PICTET PICTET - JAPAN INDEX I;S;JPY;-0.0;-0.0;0.0;0.0;0.0;-0.0;0.0;0.0;0.0;23.72;19.07;20.79;0.2;0.12;0.06
PICTET PICTET - JAPAN INDEX IS;No category;JPY;-0.0;-0.0;0.0;0.0;0.0;-0.0;0.0;0.0;0.0;23.72;19.39;20.89;0.2;0.11;0.06
PICTET PICTET - JAPAN INDEX P;Actions Japon;JPY;-0.0;-0.0;0.0;0.0;0.0;-0.0;0.0;0.0;0.0;23.81;19.48;20.86;0.12;0.04;0.0
AXA WORLD FUNDS SICAV GLOBAL BUY AND MAINTAIN CREDIT I (HEDGED) QUARTERLY;No category;JPY;-0.0;-0.0;0.0;0.0;0.0;-0.0;0.0;0.0;0.0;9.03;9999;9999;-9999;-9999;-9999
PICTET PICTET - JAPAN INDEX R;Actions Japon;JPY;-0.0;-0.0;0.0;0.0;0.0;-0.0;0.0;0.0;0.0;23.72;19.39;20.88;0.18;0.1;0.04
UNI-GLOBAL EQUITIES JAPAN SA-;Actions Japon;JPY;-0.0;-0.0;0.0;0.0;0.0;-0.0;0.0;0.0;0.0;19.85;16.88;17.55;-0.05;-0.13;0.06
UNI-GLOBAL EQUITIES JAPAN RA-;Actions Japon;JPY;-0.0;-0.0;0.0;0.0;0.0;-0.0;0.0;0.0;0.0;19.85;16.88;17.55;-0.03;-0.11;0.08
UNI-GLOBAL EQUITIES JAPAN AA-;Actions Japon;JPY;-0.0;-0.0;0.0;0.0;0.0;-0.0;0.0;0.0;0.0;19.85;9999;9999;-9999;-9999;-9999
BLUEBAY FUNDS BLUEBAY GLOBAL SOVEREIGN OPPORTUNITIES FUND I -;No category;JPY;-0.0;-0.0;0.0;0.0;0.0;-0.0;0.0;0.0;0.0;12.61;9999;9999;-9999;-9999;-9999
MORGAN STANLEY INVESTMENT FUNDS JAPANESE EQUITY FUND C 3 778.02;Actions Japon 3 778.02;JPY;-13.96;0.53;91.64004257001672;122.11509915549703;-28.648191;-4.07;-3.304672258746899;-4.105552766438036;0.0;26.83;20.34;22.59;-0.13;-0.13;-0.16
BNP PARIBAS FUNDS JAPAN SMALL CAP X 15 640.00;Actions Japon Petites et Moyennes Capitalisations 15 640.00;JPY;-4.1;0.53;70.56442159492391;225.12123075481853;-8.261916000000003;11.56;2.3541451185909334;7.397528769612061;0.0;21.84;22.21;22.03;0.55;0.12;0.35
BLUEBAY FUNDS BLUEBAY INVESTMENT GRADE EURO AGGREGATE BOND FUND S -;obligations;JPY;-0.0;-0.0;0.0;0.0;0.0;-0.0;0.0;0.0;0.0;7.8;9999;9999;-9999;-9999;-9999
BNP PARIBAS FUNDS JAPAN SMALL CAP PRIVILEGE CAPITALISATION 298 092.00;Actions Japon Petites et Moyennes Capitalisations 298 092.00;JPY;-4.55;0.51;68.61698976654063;221.84085877383689;-9.179100000000007;10.42;1.289955271777754;6.236168188300573;13.842125170792086;21.84;22.28;22.02;0.49;0.07;0.3
BNP PARIBAS FUNDS JAPAN SMALL CAP I CAPITALISATION 13 418.00;Actions Japon Petites et Moyennes Capitalisations 13 418.00;JPY;-4.48;0.51;69.00483776199664;222.32170261306408;-9.045630999999998;10.6;1.4812829990941356;6.490877897061886;14.192502577050492;21.84;22.29;22.03;0.5;0.08;0.31
AXA IM FIXED INCOME INVESTMENT STRATEGIES US SHORT DURATION HIGH YIELD B CAPITALISATION;Actions USA;JPY;-0.0;-0.0;0.0;0.0;0.0;-0.0;0.0;0.0;0.0;9999;9999;9999;-9999;-9999;-9999
BNP PARIBAS FUNDS JAPAN SMALL CAP CLASSIC DISTRIBUTION 7 896.00;Actions Japon Petites et Moyennes Capitalisations 7 896.00;JPY;-7.19;0.5;67.26593796265557;190.11832318617198;-14.215356000000002;6.79;-1.6607619492620351;3.3306254385131684;10.908099928451076;21.83;22.28;22.05;0.33;-0.05;0.17
BNP PARIBAS FUNDS JAPAN SMALL CAP CLASSIC CAPITALISATION 11 242.00;Actions Japon Petites et Moyennes Capitalisations 11 242.00;JPY;-4.99;0.49;66.88174992968743;218.68076863375046;-10.07271099999999;9.33;0.31235665070756813;5.2622548377948775;12.870281185243604;21.83;22.28;22.02;0.44;0.03;0.25
PICTET TR PICTET TR - ATLAS HJ;No category;JPY;-0.0;-0.0;0.0;0.0;0.0;-0.0;0.0;0.0;0.0;3.05;9999;9999;-9999;-9999;-9999
PICTET PICTET - GLOBAL EMERGING DEBT HI;Actions Emergentes Monde;JPY;-0.0;-0.0;0.0;0.0;0.0;-0.0;0.0;0.0;0.0;14.6;9.97;9.66;0.06;0.08;0.32
BNP PARIBAS FUNDS JAPAN SMALL CAP N CAPITALISATION 9 646.00;Actions Japon Petites et Moyennes Capitalisations 9 646.00;JPY;-5.32;0.47;65.73403392993188;216.30229808418827;-10.735296000000005;8.5;-0.4419503234918021;4.47345548276179;12.02792239136894;21.83;22.28;22.02;0.41;0.0;0.22
JPMORGAN INVESTMENT FUNDS JAPAN SELECT EQUITY FUND X;Actions Japon;JPY;-0.0;-0.0;0.0;0.0;0.0;-0.0;0.0;0.0;0.0;23.65;19.34;21.74;0.17;0.17;0.1
JPMORGAN INVESTMENT FUNDS JAPAN SELECT EQUITY FUND C;Actions Japon;JPY;-0.0;-0.0;0.0;0.0;0.0;-0.0;0.0;0.0;0.0;23.65;19.33;21.74;0.14;0.13;0.06
BLUEBAY FUNDS BLUEBAY INVESTMENT GRADE BOND FUND B -;obligations;JPY;-0.0;-0.0;0.0;0.0;0.0;-0.0;0.0;0.0;0.0;9.75;9999;9999;-9999;-9999;-9999
JPMORGAN INVESTMENT FUNDS JAPAN SELECT EQUITY FUND D;Actions Japon;JPY;-0.0;-0.0;0.0;0.0;0.0;-0.0;0.0;0.0;0.0;23.63;19.25;21.74;0.07;0.04;0.0
JPMORGAN INVESTMENT FUNDS JAPAN SELECT EQUITY FUND A;Actions Japon;JPY;-0.0;-0.0;0.0;0.0;0.0;-0.0;0.0;0.0;0.0;23.74;19.31;21.79;0.08;0.07;0.0
AB FCP I JAPAN STRATEGIC VALUE PORTFOLIO I;Actions Japon;JPY;-0.0;-0.0;0.0;0.0;0.0;-0.0;0.0;0.0;0.0;24.11;18.87;21.88;-0.13;-0.15;-0.06
AB FCP I JAPAN STRATEGIC VALUE PORTFOLIO A;Actions Japon;JPY;-0.0;-0.0;0.0;0.0;0.0;-0.0;0.0;0.0;0.0;24.12;18.87;21.88;-0.17;-0.19;-0.09
AB FCP I JAPAN STRATEGIC VALUE PORTFOLIO C;Actions Japon;JPY;-0.0;-0.0;0.0;0.0;0.0;-0.0;0.0;0.0;0.0;24.12;18.87;21.87;-0.18;-0.22;-0.11
AB FCP I JAPAN STRATEGIC VALUE PORTFOLIO B;Actions Japon;JPY;-0.0;-0.0;0.0;0.0;0.0;-0.0;0.0;0.0;0.0;24.1;18.87;21.87;-0.2;-0.24;-0.14
BLUEBAY FUNDS BLUEBAY INVESTMENT GRADE ABSOLUTE RETURN BOND FUND S -;obligations;JPY;-0.0;-0.0;0.0;0.0;0.0;-0.0;0.0;0.0;0.0;6.48;9999;9999;-9999;-9999;-9999
SCHRODER INTERNATIONAL SELECTION FUND EURO CORPORATE BOND C;obligations;JPY;-0.0;-0.0;0.0;0.0;0.0;-0.0;0.0;0.0;0.0;8.28;5.96;5.07;0.02;0.12;0.34
BLUEBAY FUNDS BLUEBAY INVESTMENT GRADE GLOBAL AGGREGATE BOND FUND Q -;obligations;JPY;-0.0;-0.0;0.0;0.0;0.0;-0.0;0.0;0.0;0.0;7.6;9999;9999;-9999;-9999;-9999
AMUNDI FUNDS AMUNDI FUNDS JAPAN EQUITY VALUE I2;Actions Japon;JPY;-0.0;-0.0;0.0;0.0;0.0;-0.0;0.0;0.0;0.0;24.93;20.91;21.23;0.21;-0.04;0.05
AMUNDI FUNDS AMUNDI FUNDS JAPAN EQUITY VALUE M2;Actions Japon;JPY;-0.0;-0.0;0.0;0.0;0.0;-0.0;0.0;0.0;0.0;24.93;20.91;21.23;0.21;-0.04;0.05
AMUNDI FUNDS AMUNDI FUNDS JAPAN EQUITY VALUE A2;Actions Japon;JPY;-0.0;-0.0;0.0;0.0;0.0;-0.0;0.0;0.0;0.0;24.92;20.91;21.22;0.17;-0.08;0.01
AMUNDI FUNDS AMUNDI FUNDS JAPAN EQUITY VALUE G2;Actions Japon;JPY;-0.0;-0.0;0.0;0.0;0.0;-0.0;0.0;0.0;0.0;24.92;20.91;21.22;0.16;-0.1;0.0
H2O ADAGIO H;No category;JPY;-0.0;-0.0;0.0;0.0;0.0;-0.0;0.0;0.0;0.0;14.32;8.17;9999;-9999;-9999;-9999
FIRST TRUST GLOBAL FUNDS PLC FIRST TRUST JAPAN ALPHADEX® UCITS ETF CLASS A 2 373.093;Actions Japon 2 373.093;JPY;-7.97;0.27;196.495062059835;153.5711039598392;-16.679615999999985;0.24;-2.3095984512604972;0.0;0.0;24.34;21.53;9999;-9999;-9999;-9999
AMUNDI FUNDS AMUNDI FUNDS JAPAN EQUITY VALUE F2;Actions Japon;JPY;-0.0;-0.0;0.0;0.0;0.0;-0.0;0.0;0.0;0.0;24.92;20.91;21.22;0.14;-0.14;-0.04
PICTET PICTET - JAPANESE EQUITY OPPORTUNITIES I;Actions Japon;JPY;-0.0;-0.0;0.0;0.0;0.0;-0.0;0.0;0.0;0.0;22.86;20.43;21.51;0.15;0.07;0.08
PICTET PICTET - JAPANESE EQUITY OPPORTUNITIES P;Actions Japon;JPY;-0.0;-0.0;0.0;0.0;0.0;-0.0;0.0;0.0;0.0;22.85;20.43;21.51;0.12;0.04;0.05
PICTET PICTET - JAPANESE EQUITY OPPORTUNITIES R;Actions Japon;JPY;-0.0;-0.0;0.0;0.0;0.0;-0.0;0.0;0.0;0.0;22.85;20.42;21.51;0.1;0.01;0.03
UBAM UBAM - SNAM JAPAN EQUITY SUSTAINABLE ZC 1 241.00;Actions Japon;JPY;-0.0;4.9;0.0;0.0;0.0;-0.0;0.0;0.0;0.0;9999;9999;9999;-9999;-9999;-9999
BLUEBAY FUNDS BLUEBAY EMERGING MARKET AGGREGATE BOND FUND S -;Actions Emergentes Monde;JPY;-0.0;-0.0;0.0;0.0;0.0;-0.0;0.0;0.0;0.0;15.32;9999;9999;-9999;-9999;-9999
SCHRODER INTERNATIONAL SELECTION FUND SCHRODER ISF - MIDDLE EAST J;No category;JPY;-0.0;-0.0;0.0;0.0;0.0;-0.0;0.0;0.0;0.0;25.97;18.56;18.02;-0.51;-0.15;-0.21
UBAM UBAM - SNAM JAPAN EQUITY SUSTAINABLE YD 10 208.00;Actions Japon;JPY;-0.0;4.84;0;0.0;0.0;-0.0;0.0;0.0;0.0;9999;9999;9999;-9999;-9999;-9999
HSBC GLOBAL INVESTMENT FUNDS ECONOMIC SCALE INDEX JAPAN EQUITY A 7 985.489;Actions Japon 1 110.994;JPY;-12.16;0.21;102.59068523832164;92.89383494750632;-24.674958999999998;-3.28;-1.5230799521033345;-0.6956103926438639;5.614659689881218;23.75;19.03;20.69;-0.11;-0.05;-0.01
HSBC GLOBAL INVESTMENT FUNDS ECONOMIC SCALE INDEX JAPAN EQUITY P 1 167.081;Actions Japon 1 167.081;JPY;-12.08;0.21;103.0495974028728;93.28696084237764;-24.53603099999999;-4.66;-2.5863135126375836;-1.5854844094955967;0.0;23.84;19.05;20.61;-0.17;-0.11;-0.05
HSBC GLOBAL INVESTMENT FUNDS ECONOMIC SCALE INDEX JAPAN EQUITY A 1 110.994;No category;JPY;-12.16;0.21;102.59068523832164;92.89383494750632;-24.674958999999998;-4.65;-2.481046857913649;-1.8318987656125274;0.0;23.83;19.04;20.65;-0.17;-0.1;-0.06
CREDIT SUISSE NOVA (LUX) CS NOVA (LUX) GLOBAL SENIOR LOAN FUND R 10 612.00;No category;JPY;-5.48;0.2;67.26593796265557;56.566650265472184;-10.565151000000006;-4.76;-1.478416095000279;0.05793283683006578;0.0;14.63;8.84;6.38;-0.29;-0.11;0.08
HSBC GLOBAL INVESTMENT FUNDS ECONOMIC SCALE INDEX JAPAN EQUITY E 1 108.941;Actions Japon 1 108.941;JPY;-12.28;0.2;101.90409943227743;92.30527089278975;-24.90044399999999;-3.57;-1.8195743640165518;-0.9935475538800254;0.0;23.75;19.03;20.69;-0.13;-0.07;-0.02
UBAM UBAM - SNAM JAPAN EQUITY SUSTAINABLE IC 1 019.00;Actions Japon;JPY;-0.0;4.73;0;0.0;0.0;-0.0;0.0;0.0;0.0;9999;9999;9999;-9999;-9999;-9999
UBAM UBAM - SNAM JAPAN EQUITY SUSTAINABLE UD 1 019.00;Actions Japon;JPY;-0.0;4.84;0;0.0;0.0;-0.0;0.0;0.0;0.0;9999;9999;9999;-9999;-9999;-9999
COMGEST GROWTH PLC COMGEST GROWTH JAPAN COMPOUNDERS;Actions Japon;JPY;-0.0;-0.0;0.0;0.0;0.0;-0.0;0.0;0.0;0.0;9999;9999;9999;-9999;-9999;-9999
POLAR CAPITAL FUNDS PLC JAPAN VALUE FUND R;Actions Japon;JPY;-0.0;-0.0;0.0;0.0;0.0;-0.0;0.0;0.0;0.0;26.38;9999;9999;-9999;-9999;-9999
UBAM UBAM - SNAM JAPAN EQUITY VALUE UC 771.00;Actions Japon 771.00;JPY;-17.72;0.13;135.0069983853859;114.64247134457852;-33.854310999999996;-8.32;0.0;0.0;0.0;29.6;9999;9999;-9999;-9999;-9999
BLUEBAY FUNDS BLUEBAY EMERGING MARKET AGGREGATE SHORT DURATION BOND FUND S -;Actions Emergentes Monde;JPY;-0.0;-0.0;0.0;0.0;0.0;-0.0;0.0;0.0;0.0;9999;9999;9999;-9999;-9999;-9999
RUSSELL INVESTMENT COMPANY PLC. RUSSELL INVESTMENTS JAPAN EQUITY FUND A 28 972.0689;Actions Japon 28 972.0689;JPY;-6.64;0.08;154.34675553198116;175.20951951360004;-13.71447899999999;5.35;2.7724262018861356;2.584869890364372;8.359619964375087;20.55;20.15;19.98;0.28;0.16;0.15
UBAM UBAM - SNAM JAPAN EQUITY VALUE ID 8 336.00;Actions Japon 8 336.00;JPY;-19.08;0.08;136.0596595681653;101.34402165313539;-36.079975;-9.79;0.0;0.0;0.0;29.75;9999;9999;-9999;-9999;-9999
UBAM UBAM - SNAM JAPAN EQUITY VALUE AD 1 195.00;Actions Japon 1 195.00;JPY;-18.76;0.08;134.74450630279588;105.56871220808976;-35.599375;-9.81;-5.299186864681493;-3.7137891185721417;0.0;29.67;22.11;24.13;-0.31;-0.21;-0.13
UBAM UBAM - SNAM JAPAN EQUITY VALUE AC 1 226.00;Actions Japon 1 226.00;JPY;-17.99;0.08;134.48228300425345;113.72183023982964;-34.341391;-8.92;-4.869984113575676;-3.2734023089128095;5.064958995095492;29.59;22.11;24.07;-0.28;-0.19;-0.11
RUSSELL INVESTMENT COMPANY PLC. RUSSELL INVESTMENTS JAPAN EQUITY FUND B (C) 1 914.029;Actions Japon 1 914.029;JPY;-6.85;0.07;153.21956280936942;173.92972542650625;-14.12271100000001;4.85;2.2872844224622435;2.107294800459214;7.8549294886327115;20.55;20.15;19.98;0.25;0.13;0.12
UBAM UBAM - SNAM JAPAN EQUITY VALUE IC 1 386.00;Actions Japon 1 386.00;JPY;-17.7;0.07;136.5876093852488;115.42379576900626;-33.838044000000004;-8.27;0.0;0.0;0.0;29.52;9999;9999;-9999;-9999;-9999
FRANKLIN TEMPLETON INVESTMENT FUNDS TEMPLETON GLOBAL BOND FUND I M;obligations;JPY;-0.0;-0.0;0.0;0.0;0.0;-0.0;0.0;0.0;0.0;8.71;9.95;14.98;-1.26;-0.75;-0.49
PICTET PICTET - JAPANESE EQUITY SELECTION I;Actions Japon;JPY;-0.0;-0.0;0.0;0.0;0.0;-0.0;0.0;0.0;0.0;23.8;20.48;21.84;0.21;0.09;0.03
UBAM UBAM - SNAM JAPAN EQUITY VALUE UD 913.00;Actions Japon 913.00;JPY;-19.35;0.0;135.79608984288848;98.72013393760643;-36.526911000000005;-10.14;0.0;0.0;0.0;29.83;9999;9999;-9999;-9999;-9999
PICTET PICTET - JAPANESE EQUITY SELECTION P;Actions Japon;JPY;-0.0;-0.0;0.0;0.0;0.0;-0.0;0.0;0.0;0.0;23.79;20.47;21.84;0.18;0.06;0.01
PICTET PICTET - SHORT-TERM MONEY MARKET;No category;JPY;-0.0;-0.0;0.0;0.0;0.0;-0.0;0.0;0.0;0.0;0.06;0.05;0.04;6.0;7.4;9.75
UBAM UBAM - SNAM JAPAN EQUITY VALUE RC 743.00;Actions Japon 743.00;JPY;-18.35;0.0;130.8392394021349;111.67876670520332;-35.06863600000001;-9.83;-5.8036396842648275;-4.226479314246068;4.019345087850268;29.5;22.08;24.08;-0.31;-0.24;-0.15
PICTET PICTET - JAPANESE EQUITY SELECTION R;Actions Japon;JPY;-0.0;-0.0;0.0;0.0;0.0;-0.0;0.0;0.0;0.0;23.79;20.47;21.84;0.16;0.04;-0.01
INVESCO FUNDS INVESCO JAPANESE EQUITY ADVANTAGE FUND Z;Actions Japon 4 216.00;JPY;-0.0;-0.0;0.0;0.0;0.0;-0.0;0.0;0.0;0.0;22.58;9999;9999;-9999;-9999;-9999
INVESCO FUNDS INVESCO JAPANESE EQUITY ADVANTAGE FUND A 4 751.00;No category;JPY;-7.37;-0.06;117.02388872672778;149.81441189273866;-14.566950999999994;3.58;2.677661347591198;3.6410274699897105;0.0;22.6;20.49;19.52;0.17;0.15;0.21
INVESCO FUNDS INVESCO JAPANESE EQUITY ADVANTAGE FUND R 4 216.00;No category;JPY;-7.71;-0.1;115.32103380099326;147.91228034908409;-15.19431899999999;2.78;1.8971152760970167;2.857911282358372;9.396488176569573;22.63;20.47;19.54;0.14;0.11;0.16
J O HAMBRO CAPITAL MANAGEMENT UMBRELLA FUND PLC JOHCM JAPAN FUND A;Actions Japon;JPY;280.147;-0.0;0.0;0.0;0.0;-0.0;0.0;0.0;0.0;26.4;22.65;23.23;-0.26;-0.21;-0.16
EDMOND DE ROTHSCHILD JAPAN I;Actions Japon 19 056.71;JPY;92.0;-0.0;0.0;0.0;0.0;-0.0;0.0;0.0;0.0;19.76;9999;9999;-9999;-9999;-9999
J O HAMBRO CAPITAL MANAGEMENT UMBRELLA FUND PLC JOHCM JAPAN FUND B;Actions Japon;JPY;276.837;-0.0;0.0;0.0;0.0;-0.0;0.0;0.0;0.0;26.42;22.64;23.14;-0.26;-0.22;-0.16
EDMOND DE ROTHSCHILD JAPAN A 19 056.71;No category;JPY;-2.65;-0.15;139.24363133979932;188.43256040984565;-3.960000000000008;10.41;0.5898472943741684;2.0095913478051397;0.0;19.76;20.58;19.39;0.55;0.05;0.12
CSIMF FUND SELECTION EQUITY EUROPE ZB 108 422.00;Actions Europe;JPY;-1.0;-0.16;-4.580907637600584;-2.3784862704000043;-1.7919000000000018;-1.58;0.1630672794201038;0.6358620080434418;0.0;2.63;2.05;2.3;-0.42;0.3;0.47
COMGEST GROWTH PLC COMGEST GROWTH JAPAN;Actions Japon;JPY;-0.0;-0.0;0.0;0.0;0.0;-0.0;0.0;0.0;0.0;17.91;19.93;9999;-9999;-9999;-9999
VANGUARD INVESTMENT SERIES PLC VANGUARD JAPAN GOVERNMENT BOND INDEX FUND;Actions Japon;JPY;-0.0;-0.0;0.0;0.0;0.0;-0.0;0.0;0.0;0.0;2.87;2.3;2.37;-0.36;0.49;0.76
CSIF (CH) BOND GOVERNMENT;obligations;JPY;-0.0;-0.0;0.0;0.0;0.0;-0.0;0.0;0.0;0.0;3.25;2.51;2.72;-0.45;0.28;0.48
VANGUARD INVESTMENT SERIES PLC VANGUARD JAPAN GOVERNMENT BOND INDEX FUND INSTITUTIONAL PLUS;No category;JPY;-0.0;-0.0;0.0;0.0;0.0;-0.0;0.0;0.0;0.0;2.87;2.31;2.39;-0.33;0.52;0.73
AXA ROSENBERG EQUITY ALPHA TRUST JAPAN EQUITY ALPHA FUND A (¥) 1 082.14;Actions Japon;JPY;-10.91;-0.24;166.16862324112498;137.33788486369542;-21.110076;3.49;-0.6948165187280697;-0.160514471446771;6.7479437911525775;21.3;19.6;20.54;0.18;-0.01;0.01
XTRACKERS II XTRACKERS II JAPAN GOVERNMENT BOND UCITS ETF 1 CAPITALISATION 1 405.4507;Obligations d'Etats YEN 1 405.4507;JPY;-1.04;-0.24;-5.837719308562428;-1.945641001951992;-1.8117190000000005;-1.68;0.7345905537774922;1.4399305768765025;0.0;3.2;2.43;2.43;-0.38;0.48;0.78
JPMORGAN FUNDS SYSTEMATIC ALPHA I;No category;JPY;-0.0;-0.0;0.0;0.0;0.0;-0.0;0.0;0.0;0.0;10.75;5.94;9999;-9999;-9999;-9999
AXA ROSENBERG EQUITY ALPHA TRUST JAPAN EQUITY ALPHA FUND B (¥) 1 045.64;Actions Japon 1 045.64;JPY;-11.18;-0.25;164.40770518278512;135.81184650448904;-21.62439100000001;2.82;-1.3412422133568969;-0.808983629268889;6.055815596317671;21.3;19.56;20.54;0.15;-0.04;-0.01
LOMBARD ODIER FUNDS JAPAN RESPONSIBLE EQUITY ENHANCED M;Actions Japon;JPY;-0.0;-0.0;0.0;0.0;0.0;-0.0;0.0;0.0;0.0;21.87;20.15;9999;-9999;-9999;-9999
LOMBARD ODIER FUNDS JAPAN RESPONSIBLE EQUITY ENHANCED MX1;No category;JPY;-0.0;-0.0;0.0;0.0;0.0;-0.0;0.0;0.0;0.0;21.87;20.66;9999;-9999;-9999;-9999
AXA ROSENBERG EQUITY ALPHA TRUST JAPAN ENHANCED INDEX EQUITY ALPHA FUND I (¥) 1 230.77;Actions Japon 1 230.77;JPY;-11.55;-0.35;160.34034707927623;134.14171685610006;-22.858911000000003;1.32;0.0;0.0;0.0;21.13;9999;9999;-9999;-9999;-9999
AXA ROSENBERG EQUITY ALPHA TRUST JAPAN ENHANCED INDEX EQUITY ALPHA FUND A (¥) 1 459.36;Actions Japon 1 459.36;JPY;-11.6;-0.36;160.0520277725818;133.91466118550716;-22.946716000000002;1.22;-0.12348575789064009;0.1654516087315372;0.0;21.13;19.59;20.47;0.07;0.01;0.03
INVESCO FUNDS INVESCO JAPANESE EQUITY VALUE DISCOVERY FUND A 1 371.00;Actions Japon 1 371.00;JPY;-11.15;-0.36;107.69141675641495;153.97323067621375;-22.560000000000002;-0.73;-0.6238842206948481;0.8842240767566345;0.0;25.54;22.02;21.49;-0.01;0.0;0.06
AXA ROSENBERG EQUITY ALPHA TRUST JAPAN ENHANCED INDEX EQUITY ALPHA FUND B (¥) 2 115.33;Actions Japon 2 115.33;JPY;-11.78;-0.36;158.90167507927814;132.85725078298887;-23.297435999999994;0.77;0.0;0.0;0.0;21.13;9999;9999;-9999;-9999;-9999
INVESCO FUNDS INVESCO JAPANESE EQUITY VALUE DISCOVERY FUND R 1 100.00;Actions Japon 1 100.00;JPY;-11.51;-0.36;105.35848515407883;152.047376;-23.174774999999993;-1.52;-1.4132109033935358;-0.054058414657331966;4.954177520736458;25.54;22.01;20.74;-0.04;-0.04;0.01
CANDRIAM EQUITIES L CANDRIAM EQUITIES L JAPAN C (D) 17 162.00;Actions Japon;JPY;-10.89;-0.36;136.0596595681653;94.86547653350625;-22.066416;-2.66;-2.037915542012392;-2.693213296039798;0.0;18.35;16.6;9999;-9999;-9999;-9999
CANDRIAM EQUITIES L CANDRIAM EQUITIES L JAPAN C (C) 21 753.00;Actions Japon;JPY;-8.74;-0.37;136.0596595681653;114.35888099999998;-18.278399999999994;-0.32;-0.11346202094636437;-0.815182551263649;5.812374112656071;18.42;16.61;18.36;0.0;0.02;-0.01
MULTI UNITS FRANCE LYXOR JAPAN (TOPIX) (DR) UCITS ETF D-;Actions Japon;JPY;-0.0;-0.0;0.0;0.0;0.0;-0.0;0.0;0.0;0.0;20.44;20.19;20.27;0.28;0.04;0.0
CREDIT SUISSE INSTITUTIONAL FUND (CSIF) JAPAN INDEX Z 88 768.00;Actions Japon;JPY;-7.28;-0.38;180.03037038428067;141.2628090672416;-15.56227899999999;5.58;1.3873307934563206;-0.002000080004804783;0.0;20.47;19.42;20.21;0.29;0.09;0.02
CREDIT SUISSE INSTITUTIONAL FUND (CSIF) JAPAN INDEX F 228 178.00;Actions Japon;JPY;-7.29;-0.39;179.72212251862248;141.41771295250624;-15.580655999999992;5.47;1.4748091205400549;0.055937385163518094;0.0;20.47;19.41;20.21;0.28;0.09;0.02
UBS ETF SICAV UBS ETF - MSCI JAPAN UCITS ETF UBS-ETF SICAV - MSCI JAPAN UCITS ETF (;Actions Japon;JPY;-0.0;-0.0;0.0;0.0;0.0;-0.0;0.0;0.0;0.0;20.74;19.48;9999;-9999;-9999;-9999
MULTI UNITS LUXEMBOURG LYXOR CORE MSCI JAPAN (DR) UCITS ETF ACC 1 439.5999;Actions Monde 1 439.5999;JPY;-6.63;-0.39;180.33892959709652;148.94124800395844;-14.381990999999994;-0.0;0.0;0.0;0.0;9999;9999;9999;-9999;-9999;-9999
CREDIT SUISSE INSTITUTIONAL FUND (CSIF) JAPAN INDEX BLUE Z (CHF) 194 805.00;Actions Japon;JPY;-7.26;-0.39;180.03037038428067;141.2628090672416;-15.525519;5.57;1.3581377798087324;-0.014003921647209872;0.0;20.47;19.41;20.21;0.29;0.09;0.02
VANGUARD INVESTMENT SERIES PLC VANGUARD JAPAN STOCK INDEX FUND INSTITUTIONAL PLUS;Actions Japon;JPY;-0.0;-0.0;0.0;0.0;0.0;-0.0;0.0;0.0;0.0;23.46;19.65;9999;-9999;-9999;-9999
AMUNDI INDEX SOLUTIONS AMUNDI INDEX MSCI JAPAN IJ CAPITALISATION 148 478.00;Actions Japon 148 478.00;JPY;-6.56;-0.39;180.6478004429311;149.81441189273866;-14.326464000000005;6.27;2.2617906748994;1.1492778571734696;0.0;20.47;19.31;20.13;0.32;0.14;0.07
AMUNDI INDEX SOLUTIONS AMUNDI INDEX MSCI JAPAN IJ DISTRIBUTION 136 191.00;Actions Japon 136 191.00;JPY;-6.56;-0.39;180.6478004429311;149.81441189273866;-14.326464000000005;4.23;0.4810158608940185;0.09980059790795082;0.0;20.53;19.26;20.11;0.22;0.04;0.02
UBS ETF SICAV UBS ETF - MSCI JAPAN UCITS ETF A 4 813.1023;No category;JPY;-7.38;-0.39;178.79924414950386;148.62430207706004;-15.764316000000012;4.25;0.4810158608940185;-0.5909431242316909;0.0;20.75;19.47;20.21;0.22;0.04;0.0
VANGUARD INVESTMENT SERIES PLC VANGUARD JAPAN STOCK INDEX FUND;Actions Japon;JPY;-0.0;-0.0;0.0;0.0;0.0;-0.0;0.0;0.0;0.0;23.46;19.65;19.15;0.25;0.13;0.2
UBS ETF SICAV UBS ETF - MSCI JAPAN UCITS ETF A;Actions Japon 4 813.1023;JPY;-0.0;-0.0;0.0;0.0;0.0;-0.0;0.0;0.0;0.0;20.48;9999;9999;-9999;-9999;-9999
JPMORGAN INVESTMENT FUNDS JAPAN STRATEGIC VALUE FUND C;Actions Japon;JPY;-0.0;-0.0;0.0;0.0;0.0;-0.0;0.0;0.0;0.0;26.39;21.35;23.49;-0.06;-0.05;-0.03
UBAM UBAM - ANGEL JAPAN SMALL CAP EQUITY UPD 11 600.00;Actions Japon Petites et Moyennes Capitalisations 11 600.00;JPY;0.27;-0.4;103.97028171519231;361.7611376201096;4.060401000000002;18.63;0.0;0.0;0.0;24.03;9999;9999;-9999;-9999;-9999
CANDRIAM SUSTAINABLE PACIFIC C (C) 3 442.00;Actions Asie Pacifique 3 442.00;JPY;-11.74;-0.41;205.72375166208957;131.27786214994183;-22.27814400000001;-2.88;-0.3646614970087003;-1.6324338484911993;5.370546049709857;22.03;16.72;20.62;-0.1;0.0;-0.05
JPMORGAN INVESTMENT FUNDS JAPAN STRATEGIC VALUE FUND A;Actions Japon;JPY;-0.0;-0.0;0.0;0.0;0.0;-0.0;0.0;0.0;0.0;26.39;21.27;23.49;-0.1;-0.09;-0.06
CANDRIAM SUSTAINABLE PACIFIC C (D) 2 639.00;Actions Asie Pacifique 2 639.00;JPY;-11.74;-0.42;206.39291419142012;131.27786214994183;-22.260510999999994;-5.38;-2.6460657437684887;-4.015845586168099;2.961488898063025;22.27;16.85;20.63;-0.22;-0.12;-0.17
INVESCO MARKETS PLC INVESCO JPX-NIKKEI 400 UCITS ETF ACC A SHARES 16 025.777;Actions Japon 16 025.777;JPY;-6.4;-0.42;174.2265768264471;156.4771020845063;-13.955824000000005;6.76;1.9003255440578126;0.0;0.0;20.69;19.31;9999;-9999;-9999;-9999
JPMORGAN INVESTMENT FUNDS JAPAN STRATEGIC VALUE FUND D;Actions Japon;JPY;-0.0;-0.0;0.0;0.0;0.0;-0.0;0.0;0.0;0.0;26.39;21.27;23.48;-0.12;-0.13;-0.09
STATE STREET GLOBAL ADVISORS LUXEMBOURG SICAV STATE STREET ASIA PACIFIC ENHANCED EQUITY FUND P 9.6941;No category;JPY;-10.49;-0.44;178.18554340901022;140.10340476911628;-21.163358999999993;-2.15;-0.49242080242215547;0.0;0.0;21.55;19.25;9999;-9999;-9999;-9999
STATE STREET GLOBAL ADVISORS LUXEMBOURG SICAV STATE STREET JAPAN INDEX EQUITY FUND I 11.8217;Actions Japon 11.8217;JPY;-6.63;-0.44;177.57308121648126;148.545112906345;-14.400495999999997;6.17;2.172462304146716;0.0;0.0;20.47;19.27;9999;-9999;-9999;-9999
UBAM UBAM - ANGEL JAPAN SMALL CAP EQUITY IPC 18 903.00;Actions Japon Petites et Moyennes Capitalisations 18 903.00;JPY;1.33;-0.45;131.35647770354328;381.6031970552323;6.708899999999973;20.92;5.129092921518286;5.177406604666812;11.289685681201034;24.57;24.64;21.88;0.87;0.22;0.25
UBAM UBAM - ANGEL JAPAN SMALL CAP EQUITY IPD 12 082.00;Actions Japon Petites et Moyennes Capitalisations 12 082.00;JPY;1.33;-0.45;131.35647770354328;381.7332502385063;6.708899999999973;20.93;0.0;0.0;0.0;24.56;9999;9999;-9999;-9999;-9999
STATE STREET GLOBAL ADVISORS LUXEMBOURG SICAV STATE STREET JAPAN INDEX EQUITY FUND P 11.602;Actions Japon 11.602;JPY;-6.8;-0.45;176.35186338798005;147.59631762948092;-14.733244000000001;5.74;1.7685383379191677;0.6904008883702684;7.159112151326763;20.47;19.27;20.21;0.3;0.11;0.05
UBAM UBAM - ANGEL JAPAN SMALL CAP EQUITY APC 17 349.00;Actions Japon Petites et Moyennes Capitalisations 17 349.00;JPY;1.0;-0.46;129.55077774762262;378.2310473228315;5.966436000000019;20.08;4.446062379577587;4.575663799696916;10.578404412126607;24.71;24.69;21.84;0.83;0.19;0.23
UBAM UBAM - ANGEL JAPAN SMALL CAP EQUITY RC 15 696.00;Actions Japon Petites et Moyennes Capitalisations 15 696.00;JPY;0.58;-0.48;126.99361019695878;373.7196171871809;5.021503999999988;19.01;4.028838156575554;3.6046001064845568;9.790220922693504;24.71;24.76;22.08;0.78;0.18;0.18
AXA ROSENBERG EQUITY ALPHA TRUST JAPAN SMALL CAP ALPHA FUND A (¥) 2 246.29;Actions Japon Petites et Moyennes Capitalisations 2 246.29;JPY;-17.19;-0.6;105.12651814118313;154.85959288400633;-31.076795999999995;-3.82;-2.3305598083139256;0.08186584987428525;7.6630172346037195;23.69;20.62;20.44;-0.14;-0.09;0.02
AXA ROSENBERG EQUITY ALPHA TRUST JAPAN SMALL CAP ALPHA FUND B (¥) 2 319.21;Actions Japon Petites et Moyennes Capitalisations 2 319.21;JPY;-17.48;-0.62;103.73975257728799;152.8484794641001;-31.590559000000006;-4.52;-3.0167599013544377;-0.6155310710633799;6.910725007070284;23.68;20.62;20.45;-0.17;-0.12;0.0
NN (L) NN(L) JAPAN EQUITY P (D) 3 901.00;No category;JPY;-16.14;-0.66;103.97028171519231;139.10197224100628;-31.076795999999995;-5.93;-2.523126238819595;-2.7647033441898117;5.279642609150281;29.65;22.48;22.32;-0.18;-0.09;-0.1
NN (L) NN(L) JAPAN EQUITY P CAP;No category;JPY;-0.0;-0.0;0.0;0.0;0.0;-0.0;0.0;0.0;0.0;29.68;22.49;22.41;-0.16;-0.07;-0.08
NN (L) NN(L) JAPAN EQUITY I (C) 5 025.00;No category;JPY;-15.86;-0.67;105.12651814118313;140.79854465568803;-30.561111000000007;-4.5;-1.3686464737262094;-1.6901763938641845;6.495815227110335;29.69;22.49;22.32;-0.13;-0.04;-0.05
PINEBRIDGE - INDIA EQUITY FUND Y3 (C) 1 948.951;Actions Inde 1 948.951;JPY;-9.94;-0.68;204.3894438882226;72.23920801284093;0.0;-0.0;0.0;0.0;0.0;9999;9999;9999;-9999;-9999;-9999
NN (L) NN(L) JAPAN EQUITY X (C) 3 967.00;No category;JPY;-16.36;-0.7;102.13272400753092;137.6439791458714;-31.44159999999999;-5.73;-2.6284839449581043;-2.951116911993046;0.0;29.69;22.48;22.31;-0.17;-0.09;-0.11
MAN FUNDS PLC MAN GLG JAPAN COREALPHA EQUITY I 16 623.00;Actions Japon 16 623.00;JPY;-20.45;-0.72;259.41834149018143;107.56743777296074;-39.284735999999995;-12.06;-5.7360669492432015;-3.6998318976220745;5.397368462825658;27.3;23.26;24.21;-0.42;-0.22;-0.13
PRIVILEDGE SMAM JAPAN SMALL AND MID CAP I;Actions Japon;JPY;-0.0;-0.0;0.0;0.0;0.0;-0.0;0.0;0.0;0.0;29.54;23.29;9999;-9999;-9999;-9999
PRIVILEDGE SMAM JAPAN SMALL AND MID CAP M;Actions Japon;JPY;-0.0;-0.0;0.0;0.0;0.0;-0.0;0.0;0.0;0.0;29.53;23.28;9999;-9999;-9999;-9999
BNP PARIBAS FLEXI III EUROPEAN SENIOR CORPORATE LOANS I PLUS H;Actions Europe;JPY;-0.0;-0.0;0.0;0.0;0.0;-0.0;0.0;0.0;0.0;9999;9999;9999;-9999;-9999;-9999
